pst_id,pst_name,pst_street,pst_city,pst_state,pst_zip,pst_phone,pst_email,pst_url,pst_ytd_sales,pst_notes
1,"Pets R Us","123 South Street",Tallahassee,fl,32304,8501234567,pets@mail.com,petsrus.com,34000.00,NULL
2,"U Buy Pets","456 North Road",Miami,fl,33101,3052343265,ubuy@mail.com,ubuypets.com,42000.00,NULL
3,"We Have Pets","213 That Way",Atlanta,ga,30303,4049834265,wehave@mail.com,wehavepets.com,23000.00,NULL
4,"Take R Critters","954 Yello Brick Rd","New York",ny,10001,7188351232,taker@mail.com,takercritters.com,102000.00,NULL
5,"Dogz N Catz","932 North Way","Saint Petersburg",fl,33713,7272123418,dogzncatz@mail.com,dogzncatz.com,36000.00,NULL
6,"The Wet Dog","2011 Johnson St",Jacksonville,fl,32034,9046659982,wetdog@mail.com,thewetdog.com,34500.00,NULL
7,"Wag A Tail","351 South Central",Tallahassee,fl,32304,8505565554,wag@mail.com,wagatail.com,26500.00,NULL
8,"Pet Shoppe","512 Main Street",Miami,fl,33101,3054434487,theshoppe@mail.com,petshoppe.com,49500.00,NULL
9,"Bark Fest","8443 Conn Rd",Atlanta,ga,30303,4049982231,bark@mail.com,barkfest.com,55500.00,NULL
10,"Ankle Biters","1212 Flower St",Jacksonville,fl,32034,9045459133,ankelbit@mail.com,anklebitters.com,100000.00,NULL
